<svg width="628" height="687" viewBox="0 0 628 687" fill="none" xmlns="http://www.w3.org/2000/svg">
<path d="M536.025 174.684C487.533 126.061 410.993 122.686 342.209 122.396C290.632 122.181 237.799 122.153 189.063 139.115C140.328 156.076 95.5874 193.609 84.5969 243.895C72.406 299.886 103.221 355.324 132.91 404.386L210.172 532.141C231.741 567.728 254.931 604.971 291.673 624.598C335.429 647.974 391.507 640.587 433.275 613.77C475.042 586.953 503.606 543.305 521.068 496.974C540.882 444.415 543.283 388.92 557.846 335.324C573.207 278.679 582.219 221.024 536.025 174.684Z" fill="#A5B4B4"/>
<path d="M31.2849 300.128C25.799 348.751 39.4059 402.413 77.8352 432.904C107.956 456.757 148.28 463.106 186.728 465.107C204.273 466.042 224.838 464.771 234.844 450.371C244.222 436.897 239.58 418.58 234.057 403.133C210.453 337.072 176.412 273.844 133.069 218.574C73.5403 142.705 37.7366 242.941 31.2849 300.128Z" fill="#FC724D"/>
<path d="M356.407 160.349C371.58 179.05 399.807 185.735 421.806 175.908C466.237 156.067 463.18 84.0497 415.186 69.9025C365.166 55.1102 324.467 121.021 356.407 160.349Z" fill="#F1E1D1"/>
<path d="M335.139 607.243C326.859 607.259 318.613 606.181 310.617 604.036C267.949 592.535 240.097 553.011 217.338 516.862C189.824 473.158 163.295 428.033 138.491 382.786C114.381 338.774 94.0318 292.003 108.276 248.093C117.41 219.958 140.526 195.591 173.376 179.489C202.446 165.221 234.639 159.059 265.736 153.093C306.012 145.37 347.658 137.385 389.52 140.003C436.464 142.92 476.638 159.779 502.623 187.475C534.507 221.445 547.513 275.369 537.432 331.742L535.707 331.434L537.432 331.742C531.909 362.599 519.39 390.874 507.274 418.206C500.663 433.12 493.827 448.538 488.172 464.266C471.883 509.606 451.534 542.753 424.132 568.579C402.77 588.729 369.996 607.243 335.139 607.243ZM373.025 142.985C337.052 142.985 301.211 149.858 266.401 156.534C235.53 162.453 203.571 168.568 174.923 182.631C156.393 191.71 123.534 212.431 111.615 249.169C97.7641 291.825 117.832 337.792 141.567 381.112C166.333 426.312 192.825 471.363 220.339 515.001C242.742 550.58 270.115 589.477 311.564 600.651C353.707 612.002 396.122 590.207 421.769 566.054C448.758 540.621 468.817 507.904 484.918 463.106C490.61 447.267 497.475 431.792 504.104 416.812C516.136 389.696 528.58 361.645 534.028 331.153C543.912 275.864 531.215 223.053 500.11 189.887C474.706 162.808 435.367 146.324 389.285 143.518C383.884 143.144 378.454 142.985 373.034 142.985H373.025Z" fill="#DCDCDC"/>
<path d="M545.842 558.041C531.926 552.487 514.54 557.471 505.697 569.533C496.854 581.595 497.379 599.632 506.916 611.161C516.453 622.69 534.111 626.645 547.662 620.296C560.95 614.078 569.118 598.846 567.748 584.269C566.379 569.692 555.961 556.554 542.363 551.047" fill="#DCDCDC"/>
</svg>
