<svg width="68" height="68" viewBox="0 0 68 68" fill="none" xmlns="http://www.w3.org/2000/svg">
<g clip-path="url(#clip0_2645_651)">
<g clip-path="url(#clip1_2645_651)">
<path d="M67.75 52H4.75V16C4.75 13.5149 6.76487 11.5 9.25 11.5H63.25C65.7351 11.5 67.75 13.5149 67.75 16V52Z" fill="#353744"/>
</g>
<g clip-path="url(#clip2_2645_651)">
<path d="M67.75 52H4.75V54.25C4.75 56.7351 6.76487 58.75 9.25 58.75H63.25C65.7351 58.75 67.75 56.7351 67.75 54.25V52Z" fill="#808080"/>
</g>
<g clip-path="url(#clip3_2645_651)">
<path d="M63.25 52H4.75V16C4.75 13.5149 6.76487 11.5 9.25 11.5H58.75C61.2351 11.5 63.25 13.5149 63.25 16V52Z" fill="#55525B"/>
</g>
<g clip-path="url(#clip4_2645_651)">
<path d="M63.25 52H4.75V54.25C4.75 56.7351 6.76487 58.75 9.25 58.75H58.75C61.2351 58.75 63.25 56.7351 63.25 54.25V52Z" fill="#DBDEE3"/>
</g>
<g clip-path="url(#clip5_2645_651)">
<path d="M57.0625 16H10.9375C10.006 16 9.25 16.756 9.25 17.6875V45.8125C9.25 46.744 10.006 47.5 10.9375 47.5H57.0625C57.994 47.5 58.75 46.744 58.75 45.8125V17.6875C58.75 16.756 57.994 16 57.0625 16Z" fill="#FBBE18"/>
</g>
<g clip-path="url(#clip6_2645_651)">
<path d="M16 25H40.75C41.9931 25 43 23.9931 43 22.75C43 21.5069 41.9931 20.5 40.75 20.5H16C14.7569 20.5 13.75 21.5069 13.75 22.75C13.75 23.9931 14.7569 25 16 25Z" fill="#F68820"/>
</g>
<g clip-path="url(#clip7_2645_651)">
<path d="M16 34H40.75C41.9931 34 43 32.9931 43 31.75C43 30.5069 41.9931 29.5 40.75 29.5H16C14.7569 29.5 13.75 30.5069 13.75 31.75C13.75 32.9931 14.7569 34 16 34Z" fill="#F68820"/>
</g>
<g clip-path="url(#clip8_2645_651)">
<path d="M16 43H40.75C41.9931 43 43 41.9931 43 40.75C43 39.5069 41.9931 38.5 40.75 38.5H16C14.7569 38.5 13.75 39.5069 13.75 40.75C13.75 41.9931 14.7569 43 16 43Z" fill="#F68820"/>
</g>
<g clip-path="url(#clip9_2645_651)">
<path d="M44.6875 63.25H40.1875V58.75H44.6875V63.25Z" fill="#808080"/>
</g>
<g clip-path="url(#clip10_2645_651)">
<path d="M29.5 58.75H40.1875V63.25H29.5V58.75Z" fill="#B3B4B6"/>
</g>
<g clip-path="url(#clip11_2645_651)">
<path d="M49.1875 63.25H21.0625C18.5774 63.25 16.5625 65.2649 16.5625 67.75H53.6875C53.6875 65.2649 51.6726 63.25 49.1875 63.25Z" fill="#DBDEE3"/>
</g>
<g clip-path="url(#clip12_2645_651)">
<path d="M49.1875 63.25H44.6875C42.2024 63.25 40.1875 65.2649 40.1875 67.75H53.6875C53.6875 65.2649 51.6726 63.25 49.1875 63.25Z" fill="#808080"/>
</g>
<g clip-path="url(#clip13_2645_651)">
<path d="M17.125 0.25H13.75C6.29463 0.25 0.25 6.29463 0.25 13.75C0.25 21.2054 6.29463 27.25 13.75 27.25H17.125C24.5804 27.25 30.625 21.2054 30.625 13.75C30.625 6.29463 24.5804 0.25 17.125 0.25Z" fill="#5C76B2"/>
</g>
<g clip-path="url(#clip14_2645_651)">
<path d="M13.75 27.25C21.2058 27.25 27.25 21.2058 27.25 13.75C27.25 6.29416 21.2058 0.25 13.75 0.25C6.29416 0.25 0.25 6.29416 0.25 13.75C0.25 21.2058 6.29416 27.25 13.75 27.25Z" fill="#6FA4D8"/>
</g>
<g clip-path="url(#clip15_2645_651)">
<path d="M13.75 25C19.9632 25 25 19.9632 25 13.75C25 7.5368 19.9632 2.5 13.75 2.5C7.5368 2.5 2.5 7.5368 2.5 13.75C2.5 19.9632 7.5368 25 13.75 25Z" fill="#55525B"/>
</g>
<g clip-path="url(#clip16_2645_651)">
<path d="M13.75 14.3125C13.4395 14.3125 13.1875 14.0605 13.1875 13.75V4.75C13.1875 4.4395 13.4395 4.1875 13.75 4.1875C14.0605 4.1875 14.3125 4.4395 14.3125 4.75V13.75C14.3125 14.0605 14.0605 14.3125 13.75 14.3125Z" fill="#6FA4D8"/>
</g>
<g clip-path="url(#clip17_2645_651)">
<path d="M8.97684 19.086C8.83284 19.086 8.68884 19.0309 8.57859 18.9218C8.35922 18.7024 8.35922 18.3458 8.57859 18.1264L13.3508 13.353C13.5702 13.1336 13.9268 13.1336 14.1462 13.353C14.3656 13.5724 14.3656 13.929 14.1462 14.1484L9.37397 18.9218C9.26484 19.0309 9.12084 19.086 8.97684 19.086Z" fill="#6FA4D8"/>
</g>
<g clip-path="url(#clip18_2645_651)">
<path d="M13.75 16C14.9926 16 16 14.9926 16 13.75C16 12.5074 14.9926 11.5 13.75 11.5C12.5074 11.5 11.5 12.5074 11.5 13.75C11.5 14.9926 12.5074 16 13.75 16Z" fill="#F68820"/>
</g>
<g clip-path="url(#clip19_2645_651)">
<path d="M13.75 14.875C14.3713 14.875 14.875 14.3713 14.875 13.75C14.875 13.1287 14.3713 12.625 13.75 12.625C13.1287 12.625 12.625 13.1287 12.625 13.75C12.625 14.3713 13.1287 14.875 13.75 14.875Z" fill="#DBDEE3"/>
</g>
<g clip-path="url(#clip20_2645_651)">
<path d="M5.875 14.3125H4.75C4.4395 14.3125 4.1875 14.0605 4.1875 13.75C4.1875 13.4395 4.4395 13.1875 4.75 13.1875H5.875C6.1855 13.1875 6.4375 13.4395 6.4375 13.75C6.4375 14.0605 6.1855 14.3125 5.875 14.3125Z" fill="#F68820"/>
</g>
<g clip-path="url(#clip21_2645_651)">
<path d="M13.75 23.3125C13.4395 23.3125 13.1875 23.0605 13.1875 22.75V21.625C13.1875 21.3145 13.4395 21.0625 13.75 21.0625C14.0605 21.0625 14.3125 21.3145 14.3125 21.625V22.75C14.3125 23.0605 14.0605 23.3125 13.75 23.3125Z" fill="#F68820"/>
</g>
<g clip-path="url(#clip22_2645_651)">
<path d="M22.75 14.3125H21.625C21.3145 14.3125 21.0625 14.0605 21.0625 13.75C21.0625 13.4395 21.3145 13.1875 21.625 13.1875H22.75C23.0605 13.1875 23.3125 13.4395 23.3125 13.75C23.3125 14.0605 23.0605 14.3125 22.75 14.3125Z" fill="#F68820"/>
</g>
<g clip-path="url(#clip23_2645_651)">
<path d="M50.875 43C49.6319 43 48.625 41.9931 48.625 40.75C48.625 39.5069 49.6319 38.5 50.875 38.5C52.1181 38.5 53.125 39.5069 53.125 40.75C53.125 41.9931 52.1181 43 50.875 43Z" fill="#F68820"/>
</g>
<g clip-path="url(#clip24_2645_651)">
<path d="M50.031 21.3439L50.8747 22.1877L53.406 19.6564C53.8717 19.1907 54.6277 19.1907 55.0935 19.6564C55.5592 20.1222 55.5592 20.8782 55.0935 21.3439L51.7185 24.7189C51.2527 25.1847 50.4967 25.1847 50.031 24.7189L48.3435 23.0314C47.8777 22.5657 47.8777 21.8097 48.3435 21.3439C48.8092 20.8782 49.5652 20.8782 50.031 21.3439Z" fill="#5C76B2"/>
</g>
<g clip-path="url(#clip25_2645_651)">
<path d="M50.031 30.3439L50.8747 31.1877L53.406 28.6564C53.8717 28.1907 54.6277 28.1907 55.0935 28.6564C55.5592 29.1222 55.5592 29.8782 55.0935 30.3439L51.7185 33.7189C51.2527 34.1847 50.4967 34.1847 50.031 33.7189L48.3435 32.0314C47.8777 31.5657 47.8777 30.8097 48.3435 30.3439C48.8092 29.8782 49.5652 29.8782 50.031 30.3439Z" fill="#5C76B2"/>
</g>
</g>
<defs>
<clipPath id="clip0_2645_651">
<rect width="67.5" height="67.5" fill="white" transform="translate(0.25 0.25)"/>
</clipPath>
<clipPath id="clip1_2645_651">
<rect width="63" height="40.5" fill="white" transform="translate(4.75 11.5)"/>
</clipPath>
<clipPath id="clip2_2645_651">
<rect width="63" height="6.75" fill="white" transform="translate(4.75 52)"/>
</clipPath>
<clipPath id="clip3_2645_651">
<rect width="58.5" height="40.5" fill="white" transform="translate(4.75 11.5)"/>
</clipPath>
<clipPath id="clip4_2645_651">
<rect width="58.5" height="6.75" fill="white" transform="translate(4.75 52)"/>
</clipPath>
<clipPath id="clip5_2645_651">
<rect width="49.5" height="31.5" fill="white" transform="translate(9.25 16)"/>
</clipPath>
<clipPath id="clip6_2645_651">
<rect width="29.25" height="4.5" fill="white" transform="translate(13.75 20.5)"/>
</clipPath>
<clipPath id="clip7_2645_651">
<rect width="29.25" height="4.5" fill="white" transform="translate(13.75 29.5)"/>
</clipPath>
<clipPath id="clip8_2645_651">
<rect width="29.25" height="4.5" fill="white" transform="translate(13.75 38.5)"/>
</clipPath>
<clipPath id="clip9_2645_651">
<rect width="4.5" height="4.5" fill="white" transform="translate(40.1875 58.75)"/>
</clipPath>
<clipPath id="clip10_2645_651">
<rect width="10.6875" height="4.5" fill="white" transform="translate(29.5 58.75)"/>
</clipPath>
<clipPath id="clip11_2645_651">
<rect width="37.125" height="4.5" fill="white" transform="translate(16.5625 63.25)"/>
</clipPath>
<clipPath id="clip12_2645_651">
<rect width="13.5" height="4.5" fill="white" transform="translate(40.1875 63.25)"/>
</clipPath>
<clipPath id="clip13_2645_651">
<rect width="30.375" height="27" fill="white" transform="translate(0.25 0.25)"/>
</clipPath>
<clipPath id="clip14_2645_651">
<rect width="27" height="27" fill="white" transform="translate(0.25 0.25)"/>
</clipPath>
<clipPath id="clip15_2645_651">
<rect width="22.5" height="22.5" fill="white" transform="translate(2.5 2.5)"/>
</clipPath>
<clipPath id="clip16_2645_651">
<rect width="1.125" height="10.125" fill="white" transform="translate(13.1875 4.1875)"/>
</clipPath>
<clipPath id="clip17_2645_651">
<rect width="5.89669" height="5.89754" fill="white" transform="translate(8.41406 13.1885)"/>
</clipPath>
<clipPath id="clip18_2645_651">
<rect width="4.5" height="4.5" fill="white" transform="translate(11.5 11.5)"/>
</clipPath>
<clipPath id="clip19_2645_651">
<rect width="2.25" height="2.25" fill="white" transform="translate(12.625 12.625)"/>
</clipPath>
<clipPath id="clip20_2645_651">
<rect width="2.25" height="1.125" fill="white" transform="translate(4.1875 13.1875)"/>
</clipPath>
<clipPath id="clip21_2645_651">
<rect width="1.125" height="2.25" fill="white" transform="translate(13.1875 21.0625)"/>
</clipPath>
<clipPath id="clip22_2645_651">
<rect width="2.25" height="1.125" fill="white" transform="translate(21.0625 13.1875)"/>
</clipPath>
<clipPath id="clip23_2645_651">
<rect width="4.5" height="4.5" fill="white" transform="translate(48.625 38.5)"/>
</clipPath>
<clipPath id="clip24_2645_651">
<rect width="7.44863" height="5.76112" fill="white" transform="translate(47.9941 19.3071)"/>
</clipPath>
<clipPath id="clip25_2645_651">
<rect width="7.44863" height="5.76113" fill="white" transform="translate(47.9941 28.3071)"/>
</clipPath>
</defs>
</svg>
